^C:\USERS\STEFAN MARWAH\DOCUMENTS\VISUAL STUDIO 2015\PROJECTS\AEROTECH_APRILTAG\CAM_PORT.CPP
C:\USERS\STEFAN MARWAH\DOCUMENTS\VISUAL STUDIO 2015\PROJECTS\AEROTECH_APRILTAG\X64\RELEASE\VC140.PDB
C:\USERS\STEFAN MARWAH\DOCUMENTS\VISUAL STUDIO 2015\PROJECTS\AEROTECH_APRILTAG\X64\RELEASE\CAM_PORT.OBJ
^C:\USERS\STEFAN MARWAH\DOCUMENTS\VISUAL STUDIO 2015\PROJECTS\AEROTECH_APRILTAG\REDBALLTRACKER.CPP
C:\USERS\STEFAN MARWAH\DOCUMENTS\VISUAL STUDIO 2015\PROJECTS\AEROTECH_APRILTAG\X64\RELEASE\VC140.PDB
C:\USERS\STEFAN MARWAH\DOCUMENTS\VISUAL STUDIO 2015\PROJECTS\AEROTECH_APRILTAG\X64\RELEASE\REDBALLTRACKER.OBJ
