^C:\USERS\STEFAN MARWAH\DOCUMENTS\VISUAL STUDIO 2015\PROJECTS\AEROTECH_APRILTAG\X64\RELEASE\REDBALLTRACKER.OBJ
C:\USERS\STEFAN MARWAH\DOCUMENTS\VISUAL STUDIO 2015\PROJECTS\AEROTECH_APRILTAG\X64\RELEASE\AEROTECH_APRILTAG.EXE
C:\USERS\STEFAN MARWAH\DOCUMENTS\VISUAL STUDIO 2015\PROJECTS\AEROTECH_APRILTAG\X64\RELEASE\AEROTECH_APRILTAG.IPDB
C:\USERS\STEFAN MARWAH\DOCUMENTS\VISUAL STUDIO 2015\PROJECTS\AEROTECH_APRILTAG\X64\RELEASE\AEROTECH_APRILTAG.IOBJ
C:\USERS\STEFAN MARWAH\DOCUMENTS\VISUAL STUDIO 2015\PROJECTS\AEROTECH_APRILTAG\X64\RELEASE\AEROTECH_APRILTAG.PDB
